bebi.com, 059735ca9952c5f69a924fde208535f98e9c3dc9, DIRECT
advertising.com, 25308, RESELLER
adtech.com, 10466, RESELLER
spotxchange.com, 211738, RESELLER, 7842df1d2fe2db34
spotx.tv, 211738, RESELLER, 7842df1d2fe2db34
xapads.com, 1104, DIRECT
beachfront.com, 4945, DIRECT, e2541279e8e2ca4d
pubmatic.com, 157535, RESELLER